…
``` r
bookmarkr::books |> dplyr::select(title, shortcut)
#> # A tibble: 34 × 2
#>    title                                                               shortcut 
#>    <chr>                                                               <chr>    
#>  1 "A Criminologist's Guide to R: Crime by the Numbers"                criminol…
#>  2 "Advanced R"                                                        advanced…
#>  3 "blogdown: Creating Websites with R Markdown\r\n"                   blogdown 
#>  4 "bookdown: Authoring Books and Technical Documents with R Markdown" bookdown 
#>  5 "Building reproducible analytical pipelines with R"                 reproduc…
#>  6 "Data Science at the Command Line"                                  ds_cl    
#>  7 "Data Visualization: A practical introduction"                      dataviz  
#>  8 "Efficient R programming"                                           efficien…
#>  9 "Engineering Production-Grade Shiny Apps"                           eng_shiny
#> 10 "Event History Analysis with R"                                     ehar     
#> # ℹ 24 more rows
```
